Statistical inference with the GSS data - Antonio Masotti
…
We see in the previous plot a similar development around the years 1990-1993, with all the groups slightly increasing.

The next step in this preliminary EDA-phase is to create a contingency table and have a look at the correlation between degree and parborn on the basis of the GSS data.

Lets start with creating a table with both variables:

degree_parborn <- gss_2 %>% 
  group_by(parborn, degree) %>% 
  summarise(count = n())

degree_parborn

## # A tibble: 40 x 3
## # Groups:   parborn [9]
##    parborn     degree         count
##    <fct>       <fct>          <int>
##  1 Both In U.S Lt High School  6845
##  2 Both In U.S High School    20969
##  3 Both In U.S Junior College  2381
##  4 Both In U.S Bachelor        5758
##  5 Both In U.S Graduate        2635
##  6 Mother Only Lt High School   299
##  7 Mother Only High School      778
##  8 Mother Only Junior College    76
##  9 Mother Only Bachelor         213
## 10 Mother Only Graduate         128
## # ... with 30 more rows
…
